…
``` r
lg1_df %>% filter(abs(.std.resid)>3)
```

    ## # A tibble: 266 x 31
    ##    .rownames satisfaction  gender loyalty    age travel_type class    distance
    ##    <chr>     <fct>         <fct>  <fct>    <dbl> <fct>       <fct>       <dbl>
    ##  1 95        satisfied     female loyal       61 business    eco           347
    ##  2 492       satisfied     male   loyal       51 business    ecoplus       380
    ##  3 1009      satisfied     female loyal       42 business    eco           899
    ##  4 1265      satisfied     female disloyal    26 business    eco           459
    ##  5 1656      satisfied     male   loyal       41 business    eco           262
    ##  6 1813      satisfied     female disloyal    29 business    eco           964
    ##  7 1823      satisfied     female loyal       64 business    eco           112
    ##  8 1848      not_satisfied female loyal       80 business    business     3859
    ##  9 1911      satisfied     male   loyal       48 business    eco            89
    ## 10 2091      not_satisfied male   loyal       34 business    business     2551
    ## # ... with 256 more rows, and 23 more variables: rating_wifi <fct>,
    ## #   rating_timely <fct>, rating_onlinebooking <fct>, rating_gate <fct>,
    ## #   rating_catering <fct>, rating_onlineboarding <fct>, rating_seat <fct>,
    ## #   rating_entertain <fct>, rating_onboard <fct>, rating_legroom <fct>,
    ## #   rating_baggage <fct>, rating_checkin <fct>, rating_inflight <fct>,
    ## #   rating_clean <fct>, delay_depart <dbl>, delay_arrive <dbl>, .fitted <dbl>,
    ## #   .resid <dbl>, .std.resid <dbl>, .hat <dbl>, .sigma <dbl>, ...
…
